<svg xmlns="http://www.w3.org/2000/svg" viewBox="515 3239.873 30.298 30.298">
  <defs>
    <style>
      .cls-1 {
        fill: #3086dc;
      }
    </style>
  </defs>
  <g id="Group_155" data-name="Group 155" transform="translate(515 3239.873)">
    <path id="Path_27" data-name="Path 27" class="cls-1" d="M15.149,1.894A13.255,13.255,0,1,1,1.894,15.149,13.271,13.271,0,0,1,15.149,1.894m0-1.894A15.149,15.149,0,1,0,30.3,15.149,15.15,15.15,0,0,0,15.149,0Z" transform="translate(0)"/>
    <path id="Subtraction_33" data-name="Subtraction 33" class="cls-1" d="M13.5,16.983H2a2,2,0,0,1-2-2V3.361a2,2,0,0,1,2-2H3.728V.917a.918.918,0,0,1,1.835,0v.444h4.5V.917a.917.917,0,1,1,1.834,0v.444H13.5a2,2,0,0,1,2,2V14.983A2,2,0,0,1,13.5,16.983ZM5.9,11.968l-.547,1.069a4.357,4.357,0,0,0,2.309.726c1.454,0,2.394-.805,2.394-2.052,0-1.084-.918-1.812-2.283-1.812H7.1V8.848H9.795V7.719H5.863v3.326c.386-.034,1.3-.051,1.659-.051.685,0,1.094.3,1.094.8,0,.56-.4.881-1.1.881a2.348,2.348,0,0,1-1.607-.71h0ZM2,5.8H13.5a2.065,2.065,0,0,1,.224.013V4.136a1,1,0,0,0-1-1h-.834v.03a.917.917,0,0,1-1.834,0v-.03h-4.5v.03a.918.918,0,0,1-1.835,0v-.03H2.776a1,1,0,0,0-1,1V5.811A2.058,2.058,0,0,1,2,5.8Z" transform="translate(7.397 6.45)"/>
  </g>
</svg>
